2018-09-29 17:05:43,978 INFO: Tubayo startup [in /home/kinober/Desktop/tubayo/app/__init__.py:74]
2018-09-29 17:06:37,999 INFO: Tubayo startup [in /home/kinober/Desktop/tubayo/app/__init__.py:74]
2018-09-29 17:10:57,653 INFO: Tubayo startup [in /home/kinober/Desktop/tubayo/app/__init__.py:74]
2018-09-29 17:11:54,531 INFO: Tubayo startup [in /home/kinober/Desktop/tubayo/app/__init__.py:74]
2018-09-29 17:12:37,959 INFO: Tubayo startup [in /home/kinober/Desktop/tubayo/app/__init__.py:74]
2018-09-29 17:13:32,800 INFO: Tubayo startup [in /home/kinober/Desktop/tubayo/app/__init__.py:74]
2018-09-29 17:22:23,451 INFO: Tubayo startup [in /home/kinober/Desktop/tubayo/app/__init__.py:74]
2018-09-29 17:22:29,372 INFO: Tubayo startup [in /home/kinober/Desktop/tubayo/app/__init__.py:74]
2018-09-29 17:24:06,561 INFO: Tubayo startup [in /home/kinober/Desktop/tubayo/app/__init__.py:74]
2018-09-29 17:24:24,066 INFO: Tubayo startup [in /home/kinober/Desktop/tubayo/app/__init__.py:74]
2018-09-29 17:24:46,649 INFO: Tubayo startup [in /home/kinober/Desktop/tubayo/app/__init__.py:74]
2018-09-29 17:24:47,467 INFO: Tubayo startup [in /home/kinober/Desktop/tubayo/app/__init__.py:74]
2018-09-29 17:27:17,105 INFO: Tubayo startup [in /home/kinober/Desktop/tubayo/app/__init__.py:74]
2018-09-29 17:27:20,841 INFO: Tubayo startup [in /home/kinober/Desktop/tubayo/app/__init__.py:74]
2018-09-29 17:27:23,848 INFO: Tubayo startup [in /home/kinober/Desktop/tubayo/app/__init__.py:74]
2018-09-29 17:27:24,669 INFO: Tubayo startup [in /home/kinober/Desktop/tubayo/app/__init__.py:74]
2018-09-29 17:34:23,426 INFO: Tubayo startup [in /home/kinober/Desktop/tubayo/app/__init__.py:74]
2018-09-29 17:34:37,812 INFO: Tubayo startup [in /home/kinober/Desktop/tubayo/app/__init__.py:74]
2018-09-29 17:35:07,789 INFO: Tubayo startup [in /home/kinober/Desktop/tubayo/app/__init__.py:74]
2018-09-29 17:35:12,057 INFO: Tubayo startup [in /home/kinober/Desktop/tubayo/app/__init__.py:74]
2018-09-29 17:36:42,507 INFO: Tubayo startup [in /home/kinober/Desktop/tubayo/app/__init__.py:74]
2018-09-29 17:36:45,927 INFO: Tubayo startup [in /home/kinober/Desktop/tubayo/app/__init__.py:74]
2018-09-29 17:36:51,745 INFO: Tubayo startup [in /home/kinober/Desktop/tubayo/app/__init__.py:74]
2018-09-29 17:36:52,560 INFO: Tubayo startup [in /home/kinober/Desktop/tubayo/app/__init__.py:74]
2018-09-29 17:37:37,301 INFO: Tubayo startup [in /home/kinober/Desktop/tubayo/app/__init__.py:74]
2018-09-29 17:49:34,420 INFO: Tubayo startup [in /home/kinober/Desktop/tubayo/app/__init__.py:74]
2018-09-29 17:50:13,834 INFO: Tubayo startup [in /home/kinober/Desktop/tubayo/app/__init__.py:74]
2018-09-29 17:53:19,398 INFO: Tubayo startup [in /home/kinober/Desktop/tubayo/app/__init__.py:74]
2018-09-29 17:53:45,056 INFO: Tubayo startup [in /home/kinober/Desktop/tubayo/app/__init__.py:74]
2018-09-29 17:56:55,947 INFO: Tubayo startup [in /home/kinober/Desktop/tubayo/app/__init__.py:74]
2018-09-29 18:00:04,611 INFO: Tubayo startup [in /home/kinober/Desktop/tubayo/app/__init__.py:74]
2018-09-29 18:01:19,799 INFO: Tubayo startup [in /home/kinober/Desktop/tubayo/app/__init__.py:74]
2018-09-29 18:01:31,787 INFO: Tubayo startup [in /home/kinober/Desktop/tubayo/app/__init__.py:74]
2018-09-29 18:01:37,242 INFO: Tubayo startup [in /home/kinober/Desktop/tubayo/app/__init__.py:74]
2018-09-29 18:01:40,785 INFO: Tubayo startup [in /home/kinober/Desktop/tubayo/app/__init__.py:74]
2018-09-29 18:01:41,612 INFO: Tubayo startup [in /home/kinober/Desktop/tubayo/app/__init__.py:74]
2018-09-29 18:06:01,627 INFO: Tubayo startup [in /home/kinober/Desktop/tubayo/app/__init__.py:74]
2018-10-01 11:54:41,733 INFO: Tubayo startup [in /home/kinober/Desktop/tubayo/app/__init__.py:74]
2018-10-01 11:54:55,720 INFO: Tubayo startup [in /home/kinober/Desktop/tubayo/app/__init__.py:74]
2018-10-01 11:54:56,646 INFO: Tubayo startup [in /home/kinober/Desktop/tubayo/app/__init__.py:74]
2018-10-01 16:20:54,519 INFO: Tubayo startup [in /home/kinober/Desktop/tubayo/app/__init__.py:74]
2018-10-01 16:20:56,440 INFO: Tubayo startup [in /home/kinober/Desktop/tubayo/app/__init__.py:74]
2018-10-01 16:23:47,497 INFO: Tubayo startup [in /home/kinober/Desktop/tubayo/app/__init__.py:74]
2018-10-01 16:35:00,584 INFO: Tubayo startup [in /home/kinober/Desktop/tubayo/app/__init__.py:74]
2018-10-01 16:35:49,836 INFO: Tubayo startup [in /home/kinober/Desktop/tubayo/app/__init__.py:74]
2018-10-01 16:35:50,679 INFO: Tubayo startup [in /home/kinober/Desktop/tubayo/app/__init__.py:74]
2018-10-01 16:36:46,648 INFO: Tubayo startup [in /home/kinober/Desktop/tubayo/app/__init__.py:74]
2018-10-01 16:37:41,510 INFO: Tubayo startup [in /home/kinober/Desktop/tubayo/app/__init__.py:74]
2018-10-01 16:38:03,826 INFO: Tubayo startup [in /home/kinober/Desktop/tubayo/app/__init__.py:74]
2018-10-01 16:38:04,692 INFO: Tubayo startup [in /home/kinober/Desktop/tubayo/app/__init__.py:74]
2018-10-01 16:39:49,041 INFO: Tubayo startup [in /home/kinober/Desktop/tubayo/app/__init__.py:74]
2018-10-01 16:41:57,281 INFO: Tubayo startup [in /home/kinober/Desktop/tubayo/app/__init__.py:74]
2018-10-01 20:23:37,043 INFO: Tubayo startup [in /home/kinober/Desktop/tubayo/app/__init__.py:74]
2018-10-01 20:23:39,385 INFO: Tubayo startup [in /home/kinober/Desktop/tubayo/app/__init__.py:74]
2018-10-01 20:29:02,547 INFO: Tubayo startup [in /home/kinober/Desktop/tubayo/app/__init__.py:74]
2018-10-01 20:29:29,921 INFO: Tubayo startup [in /home/kinober/Desktop/tubayo/app/__init__.py:74]
2018-10-02 14:20:17,490 INFO: Tubayo startup [in /home/kinober/Desktop/tubayo/app/__init__.py:74]
2018-10-02 14:20:19,840 INFO: Tubayo startup [in /home/kinober/Desktop/tubayo/app/__init__.py:74]
2018-10-02 15:29:11,957 INFO: Tubayo startup [in /home/kinober/Desktop/tubayo/app/__init__.py:74]
2018-10-02 15:29:13,058 INFO: Tubayo startup [in /home/kinober/Desktop/tubayo/app/__init__.py:74]
2018-10-02 15:31:58,337 INFO: Tubayo startup [in /home/kinober/Desktop/tubayo/app/__init__.py:74]
2018-10-02 15:32:55,284 INFO: Tubayo startup [in /home/kinober/Desktop/tubayo/app/__init__.py:74]
2018-10-02 15:33:38,896 INFO: Tubayo startup [in /home/kinober/Desktop/tubayo/app/__init__.py:74]
2018-10-02 15:34:13,451 ERROR: No row was found for one() [in /home/kinober/Desktop/tubayo/app/shopping_cart/ShoppingCart.py:22]
2018-10-02 15:34:33,516 ERROR: (mysql.connector.errors.IntegrityError) 1048 (23000): Column 'date' cannot be null [SQL: u'INSERT INTO `ShoppingCart` (created_on, updated_on, item_name, price, quantity, total, description, filename, experience_id, user_id, date) VALUES (%(created_on)s, now(), %(item_name)s, %(price)s, %(quantity)s, %(total)s, %(description)s, %(filename)s, %(experience_id)s, %(user_id)s, %(date)s)'] [parameters: {'user_id': 1, 'description': u'mmgyui', 'item_name': u'yo87', 'price': 75.0, 'filename': u'b5420db5-75c2-4b3c-86a7-3d9838b92247.jpg', 'created_on': datetime.datetime(2018, 10, 2, 12, 34, 33, 513651), 'date': None, 'experience_id': 11, 'total': 75.0, 'quantity': 1}] (Background on this error at: http://sqlalche.me/e/gkpj) [in /home/kinober/Desktop/tubayo/app/shopping_cart/ShoppingCart.py:36]
2018-10-02 15:35:55,490 INFO: Tubayo startup [in /home/kinober/Desktop/tubayo/app/__init__.py:74]
2018-10-02 15:36:26,488 ERROR: No row was found for one() [in /home/kinober/Desktop/tubayo/app/shopping_cart/ShoppingCart.py:22]
2018-10-02 15:36:26,503 ERROR: (mysql.connector.errors.IntegrityError) 1048 (23000): Column 'date' cannot be null [SQL: u'INSERT INTO `ShoppingCart` (created_on, updated_on, item_name, price, quantity, total, description, filename, experience_id, user_id, date) VALUES (%(created_on)s, now(), %(item_name)s, %(price)s, %(quantity)s, %(total)s, %(description)s, %(filename)s, %(experience_id)s, %(user_id)s, %(date)s)'] [parameters: {'user_id': 1, 'description': u'uimuykm', 'item_name': u'iui', 'price': 897.0, 'filename': u'breakfast.jpg', 'created_on': datetime.datetime(2018, 10, 2, 12, 36, 26, 501532), 'date': None, 'experience_id': 10, 'total': 897.0, 'quantity': 1}] (Background on this error at: http://sqlalche.me/e/gkpj) [in /home/kinober/Desktop/tubayo/app/shopping_cart/ShoppingCart.py:36]
2018-10-02 15:36:51,089 ERROR: No row was found for one() [in /home/kinober/Desktop/tubayo/app/shopping_cart/ShoppingCart.py:22]
2018-10-02 15:36:51,101 ERROR: (mysql.connector.errors.IntegrityError) 1048 (23000): Column 'date' cannot be null [SQL: u'INSERT INTO `ShoppingCart` (created_on, updated_on, item_name, price, quantity, total, description, filename, experience_id, user_id, date) VALUES (%(created_on)s, now(), %(item_name)s, %(price)s, %(quantity)s, %(total)s, %(description)s, %(filename)s, %(experience_id)s, %(user_id)s, %(date)s)'] [parameters: {'user_id': 1, 'description': u'5ynw4', 'item_name': u'rr6', 'price': 300.0, 'filename': u'Airbnb5.jpg', 'created_on': datetime.datetime(2018, 10, 2, 12, 36, 51, 99567), 'date': None, 'experience_id': 12, 'total': 300.0, 'quantity': 1}] (Background on this error at: http://sqlalche.me/e/gkpj) [in /home/kinober/Desktop/tubayo/app/shopping_cart/ShoppingCart.py:36]
2018-10-02 15:39:47,099 INFO: Tubayo startup [in /home/kinober/Desktop/tubayo/app/__init__.py:74]
2018-10-02 15:40:21,040 ERROR: No row was found for one() [in /home/kinober/Desktop/tubayo/app/shopping_cart/ShoppingCart.py:22]
2018-10-02 15:40:21,064 ERROR: (mysql.connector.errors.IntegrityError) 1048 (23000): Column 'date' cannot be null [SQL: u'INSERT INTO `ShoppingCart` (created_on, updated_on, item_name, price, quantity, total, description, filename, experience_id, user_id, date) VALUES (%(created_on)s, now(), %(item_name)s, %(price)s, %(quantity)s, %(total)s, %(description)s, %(filename)s, %(experience_id)s, %(user_id)s, %(date)s)'] [parameters: {'user_id': 1, 'description': u'5ynw4', 'item_name': u'rr6', 'price': 300.0, 'filename': u'Airbnb5.jpg', 'created_on': datetime.datetime(2018, 10, 2, 12, 40, 21, 61090), 'date': None, 'experience_id': 12, 'total': 300.0, 'quantity': 1}] (Background on this error at: http://sqlalche.me/e/gkpj) [in /home/kinober/Desktop/tubayo/app/shopping_cart/ShoppingCart.py:36]
2018-10-02 15:40:41,022 INFO: Tubayo startup [in /home/kinober/Desktop/tubayo/app/__init__.py:74]
