2018-11-07 10:06:10,557 INFO: Tubayo startup [in /home/kinober/Desktop/tubayo/app/__init__.py:74]
2018-11-07 10:09:25,366 INFO: Tubayo startup [in /home/kinober/Desktop/tubayo/app/__init__.py:74]
2018-11-07 10:09:26,254 INFO: Tubayo startup [in /home/kinober/Desktop/tubayo/app/__init__.py:74]
2018-11-07 10:10:39,642 INFO: Tubayo startup [in /home/kinober/Desktop/tubayo/app/__init__.py:74]
2018-11-07 10:11:10,829 INFO: Tubayo startup [in /home/kinober/Desktop/tubayo/app/__init__.py:74]
2018-11-07 10:11:11,716 INFO: Tubayo startup [in /home/kinober/Desktop/tubayo/app/__init__.py:74]
2018-11-07 10:11:43,229 INFO: Tubayo startup [in /home/kinober/Desktop/tubayo/app/__init__.py:74]
2018-11-07 10:13:26,511 INFO: Tubayo startup [in /home/kinober/Desktop/tubayo/app/__init__.py:74]
2018-11-07 10:15:51,557 INFO: Tubayo startup [in /home/kinober/Desktop/tubayo/app/__init__.py:74]
2018-11-07 10:35:40,365 INFO: Tubayo startup [in /home/kinober/Desktop/tubayo/app/__init__.py:74]
2018-11-07 11:00:22,613 INFO: Tubayo startup [in /home/kinober/Desktop/tubayo/app/__init__.py:74]
2018-11-07 11:11:25,681 INFO: Tubayo startup [in /home/kinober/Desktop/tubayo/app/__init__.py:74]
2018-11-07 11:15:25,082 INFO: Tubayo startup [in /home/kinober/Desktop/tubayo/app/__init__.py:74]
2018-11-07 11:17:19,513 INFO: Tubayo startup [in /home/kinober/Desktop/tubayo/app/__init__.py:74]
2018-11-07 11:18:30,717 INFO: Tubayo startup [in /home/kinober/Desktop/tubayo/app/__init__.py:74]
2018-11-07 11:20:03,571 INFO: Tubayo startup [in /home/kinober/Desktop/tubayo/app/__init__.py:74]
2018-11-07 11:22:37,632 INFO: Tubayo startup [in /home/kinober/Desktop/tubayo/app/__init__.py:74]
2018-11-07 11:22:58,499 INFO: Tubayo startup [in /home/kinober/Desktop/tubayo/app/__init__.py:74]
2018-11-07 11:22:59,380 INFO: Tubayo startup [in /home/kinober/Desktop/tubayo/app/__init__.py:74]
2018-11-08 11:01:17,781 INFO: Tubayo startup [in /home/kinober/Desktop/tubayo/app/__init__.py:74]
2018-11-08 11:01:22,932 INFO: Tubayo startup [in /home/kinober/Desktop/tubayo/app/__init__.py:74]
2018-11-08 13:10:44,060 INFO: Tubayo startup [in /home/kinober/Desktop/tubayo/app/__init__.py:74]
2018-11-08 13:10:44,940 INFO: Tubayo startup [in /home/kinober/Desktop/tubayo/app/__init__.py:74]
2018-11-08 13:13:07,415 INFO: Tubayo startup [in /home/kinober/Desktop/tubayo/app/__init__.py:74]
2018-11-08 13:13:08,276 INFO: Tubayo startup [in /home/kinober/Desktop/tubayo/app/__init__.py:74]
2018-11-08 21:35:35,939 INFO: Tubayo startup [in /home/kinober/Desktop/tubayo/app/__init__.py:74]
2018-11-08 21:35:40,385 INFO: Tubayo startup [in /home/kinober/Desktop/tubayo/app/__init__.py:74]
2018-11-08 23:09:41,512 INFO: Tubayo startup [in /home/kinober/Desktop/tubayo/app/__init__.py:74]
2018-11-08 23:09:42,378 INFO: Tubayo startup [in /home/kinober/Desktop/tubayo/app/__init__.py:74]
2018-11-08 23:18:05,576 INFO: Tubayo startup [in /home/kinober/Desktop/tubayo/app/__init__.py:74]
2018-11-08 23:21:01,640 INFO: Tubayo startup [in /home/kinober/Desktop/tubayo/app/__init__.py:74]
2018-11-08 23:22:19,853 INFO: Tubayo startup [in /home/kinober/Desktop/tubayo/app/__init__.py:74]
2018-11-08 23:23:51,126 INFO: Tubayo startup [in /home/kinober/Desktop/tubayo/app/__init__.py:74]
2018-11-08 23:24:35,227 INFO: Tubayo startup [in /home/kinober/Desktop/tubayo/app/__init__.py:74]
2018-11-08 23:26:17,235 INFO: Tubayo startup [in /home/kinober/Desktop/tubayo/app/__init__.py:74]
2018-11-08 23:26:31,054 INFO: Tubayo startup [in /home/kinober/Desktop/tubayo/app/__init__.py:74]
2018-11-08 23:26:44,887 INFO: Tubayo startup [in /home/kinober/Desktop/tubayo/app/__init__.py:74]
2018-11-08 23:28:58,392 INFO: Tubayo startup [in /home/kinober/Desktop/tubayo/app/__init__.py:74]
2018-11-08 23:30:01,232 INFO: Tubayo startup [in /home/kinober/Desktop/tubayo/app/__init__.py:74]
2018-11-08 23:30:31,833 INFO: Tubayo startup [in /home/kinober/Desktop/tubayo/app/__init__.py:74]
2018-11-08 23:31:49,731 INFO: Tubayo startup [in /home/kinober/Desktop/tubayo/app/__init__.py:74]
2018-11-08 23:32:01,663 INFO: Tubayo startup [in /home/kinober/Desktop/tubayo/app/__init__.py:74]
2018-11-08 23:33:14,644 INFO: Tubayo startup [in /home/kinober/Desktop/tubayo/app/__init__.py:74]
2018-11-08 23:33:27,145 INFO: Tubayo startup [in /home/kinober/Desktop/tubayo/app/__init__.py:74]
2018-11-08 23:34:29,530 INFO: Tubayo startup [in /home/kinober/Desktop/tubayo/app/__init__.py:74]
2018-11-08 23:34:30,423 INFO: Tubayo startup [in /home/kinober/Desktop/tubayo/app/__init__.py:74]
2018-11-09 11:58:16,610 INFO: Tubayo startup [in /home/kinober/Desktop/tubayo/app/__init__.py:74]
2018-11-09 11:58:21,250 INFO: Tubayo startup [in /home/kinober/Desktop/tubayo/app/__init__.py:74]
2018-11-09 13:14:12,629 INFO: Tubayo startup [in /home/kinober/Desktop/tubayo/app/__init__.py:74]
2018-11-09 13:14:13,513 INFO: Tubayo startup [in /home/kinober/Desktop/tubayo/app/__init__.py:74]
2018-11-09 13:26:37,714 INFO: Tubayo startup [in /home/kinober/Desktop/tubayo/app/__init__.py:74]
2018-11-09 13:26:45,375 INFO: Tubayo startup [in /home/kinober/Desktop/tubayo/app/__init__.py:74]
2018-11-09 13:26:59,201 INFO: Tubayo startup [in /home/kinober/Desktop/tubayo/app/__init__.py:74]
2018-11-09 13:27:00,087 INFO: Tubayo startup [in /home/kinober/Desktop/tubayo/app/__init__.py:74]
2018-11-09 15:32:10,583 INFO: Tubayo startup [in /home/kinober/Desktop/tubayo/app/__init__.py:74]
2018-11-09 15:32:13,109 INFO: Tubayo startup [in /home/kinober/Desktop/tubayo/app/__init__.py:74]
2018-11-09 16:05:59,060 INFO: Tubayo startup [in /home/kinober/Desktop/tubayo/app/__init__.py:74]
2018-11-09 16:06:03,419 INFO: Tubayo startup [in /home/kinober/Desktop/tubayo/app/__init__.py:74]
2018-11-13 19:44:44,902 INFO: Tubayo startup [in /home/kinober/Desktop/tubayo/app/__init__.py:74]
2018-11-13 19:44:49,395 INFO: Tubayo startup [in /home/kinober/Desktop/tubayo/app/__init__.py:74]
2018-11-18 18:53:12,296 INFO: Tubayo startup [in /home/kinober/Desktop/tubayo/app/__init__.py:74]
2018-11-18 18:53:14,871 INFO: Tubayo startup [in /home/kinober/Desktop/tubayo/app/__init__.py:74]
2018-11-20 09:55:35,613 INFO: Tubayo startup [in /home/kinober/Desktop/tubayo/app/__init__.py:80]
2018-11-20 09:55:37,735 INFO: Tubayo startup [in /home/kinober/Desktop/tubayo/app/__init__.py:80]
2018-11-20 10:18:59,686 INFO: Tubayo startup [in /home/kinober/Desktop/tubayo/app/__init__.py:80]
2018-11-20 10:28:14,564 INFO: Tubayo startup [in /home/kinober/Desktop/tubayo/app/__init__.py:80]
2018-11-20 12:21:12,496 INFO: Tubayo startup [in /home/kinober/Desktop/tubayo/app/__init__.py:81]
2018-11-20 12:21:13,769 INFO: Tubayo startup [in /home/kinober/Desktop/tubayo/app/__init__.py:81]
2018-11-26 09:38:55,456 INFO: Tubayo startup [in /home/kinober/Desktop/tubayo/app/__init__.py:81]
2018-11-26 09:38:58,080 INFO: Tubayo startup [in /home/kinober/Desktop/tubayo/app/__init__.py:81]
2018-11-26 09:40:54,205 INFO: Tubayo startup [in /home/kinober/Desktop/tubayo/app/__init__.py:81]
2018-11-26 09:41:01,636 INFO: Tubayo startup [in /home/kinober/Desktop/tubayo/app/__init__.py:81]
2018-11-26 09:42:03,819 INFO: Tubayo startup [in /home/kinober/Desktop/tubayo/app/__init__.py:81]
2018-11-26 09:42:23,235 INFO: Tubayo startup [in /home/kinober/Desktop/tubayo/app/__init__.py:81]
2018-11-26 09:42:36,608 INFO: Tubayo startup [in /home/kinober/Desktop/tubayo/app/__init__.py:81]
2018-11-26 12:37:51,910 INFO: Tubayo startup [in /home/kinober/Desktop/tubayo/app/__init__.py:81]
2018-11-26 12:37:54,820 INFO: Tubayo startup [in /home/kinober/Desktop/tubayo/app/__init__.py:81]
2018-11-26 11:23:46,496 INFO: Tubayo startup [in /home/kinober/Desktop/tubayo/app/__init__.py:81]
2018-11-26 11:28:30,024 INFO: Tubayo startup [in /home/kinober/Desktop/tubayo/app/__init__.py:81]
2018-11-26 12:39:49,012 INFO: Tubayo startup [in /home/kinober/Desktop/tubayo/app/__init__.py:81]
2018-11-26 12:40:21,375 INFO: Tubayo startup [in /home/kinober/Desktop/tubayo/app/__init__.py:81]
2018-11-26 12:41:06,638 INFO: Tubayo startup [in /home/kinober/Desktop/tubayo/app/__init__.py:81]
2018-11-27 12:42:41,143 INFO: Tubayo startup [in /home/kinober/Desktop/tubayo/app/__init__.py:81]
2018-11-27 12:42:45,905 INFO: Tubayo startup [in /home/kinober/Desktop/tubayo/app/__init__.py:81]
2018-11-27 12:46:29,039 INFO: Tubayo startup [in /home/kinober/Desktop/tubayo/app/__init__.py:81]
2018-11-28 11:04:18,112 INFO: Tubayo startup [in /home/kinober/Desktop/tubayo/app/__init__.py:81]
2018-11-28 11:04:22,661 INFO: Tubayo startup [in /home/kinober/Desktop/tubayo/app/__init__.py:81]
2018-11-28 11:26:34,683 INFO: Tubayo startup [in /home/kinober/Desktop/tubayo/app/__init__.py:81]
2018-11-28 13:20:02,096 INFO: Tubayo startup [in /home/kinober/Desktop/tubayo/app/__init__.py:81]
2018-11-28 13:20:07,076 INFO: Tubayo startup [in /home/kinober/Desktop/tubayo/app/__init__.py:81]
2018-12-16 11:48:43,413 INFO: Tubayo startup [in /home/jo-kinathany/Desktop/tubayotravel/app/__init__.py:81]
2018-12-16 11:50:41,973 INFO: Tubayo startup [in /home/jo-kinathany/Desktop/tubayotravel/app/__init__.py:81]
2018-12-16 11:51:03,600 INFO: Tubayo startup [in /home/jo-kinathany/Desktop/tubayotravel/app/__init__.py:81]
2018-12-16 11:51:23,902 INFO: Tubayo startup [in /home/jo-kinathany/Desktop/tubayotravel/app/__init__.py:81]
2018-12-16 12:17:09,336 INFO: Tubayo startup [in /home/jo-kinathany/Desktop/tubayotravel/app/__init__.py:81]
2018-12-16 12:19:45,758 INFO: Tubayo startup [in /home/jo-kinathany/Desktop/tubayotravel/app/__init__.py:81]
2018-12-16 12:21:28,379 INFO: Tubayo startup [in /home/jo-kinathany/Desktop/tubayotravel/app/__init__.py:81]
2018-12-16 12:21:29,499 INFO: Tubayo startup [in /home/jo-kinathany/Desktop/tubayotravel/app/__init__.py:81]
2018-12-17 11:09:08,560 INFO: Tubayo startup [in /home/jo-kinathany/Desktop/tubayotravel/app/__init__.py:81]
2018-12-17 11:09:11,512 INFO: Tubayo startup [in /home/jo-kinathany/Desktop/tubayotravel/app/__init__.py:81]
2018-12-17 11:50:39,571 INFO: Tubayo startup [in /home/jo-kinathany/Desktop/tubayotravel/app/__init__.py:81]
2018-12-20 15:34:38,635 INFO: Tubayo startup [in /home/jo-kinathany/Desktop/tubayotravel/app/__init__.py:81]
2018-12-20 15:34:40,987 INFO: Tubayo startup [in /home/jo-kinathany/Desktop/tubayotravel/app/__init__.py:81]
