2018-10-04 12:38:59,845 INFO: Tubayo startup [in /home/kinober/Desktop/tubayo/app/__init__.py:74]
2018-10-04 12:39:10,941 ERROR: No row was found for one() [in /home/kinober/Desktop/tubayo/app/shopping_cart/ShoppingCart.py:22]
2018-10-04 12:39:13,864 ERROR: (mysql.connector.errors.IntegrityError) 1048 (23000): Column 'date' cannot be null [SQL: u'INSERT INTO `ShoppingCart` (created_on, updated_on, item_name, price, quantity, total, description, filename, experience_id, user_id, date) VALUES (%(created_on)s, now(), %(item_name)s, %(price)s, %(quantity)s, %(total)s, %(description)s, %(filename)s, %(experience_id)s, %(user_id)s, %(date)s)'] [parameters: {'user_id': 1, 'description': u'Treasure hunting', 'item_name': u'The Cave', 'price': 400.0, 'filename': u'uganda-tourism-center-queen-elizabeth.jpg', 'created_on': datetime.datetime(2018, 10, 4, 9, 39, 13, 821270), 'date': None, 'experience_id': 2, 'total': 400.0, 'quantity': 1}] (Background on this error at: http://sqlalche.me/e/gkpj) [in /home/kinober/Desktop/tubayo/app/shopping_cart/ShoppingCart.py:36]
2018-10-04 12:55:08,948 ERROR: No row was found for one() [in /home/kinober/Desktop/tubayo/app/shopping_cart/ShoppingCart.py:22]
2018-10-04 12:55:12,212 ERROR: (mysql.connector.errors.IntegrityError) 1048 (23000): Column 'date' cannot be null [SQL: u'INSERT INTO `ShoppingCart` (created_on, updated_on, item_name, price, quantity, total, description, filename, experience_id, user_id, date) VALUES (%(created_on)s, now(), %(item_name)s, %(price)s, %(quantity)s, %(total)s, %(description)s, %(filename)s, %(experience_id)s, %(user_id)s, %(date)s)'] [parameters: {'user_id': 1, 'description': u'Treasure hunting', 'item_name': u'The Cave', 'price': 400.0, 'filename': u'uganda-tourism-center-queen-elizabeth.jpg', 'created_on': datetime.datetime(2018, 10, 4, 9, 55, 12, 165217), 'date': None, 'experience_id': 2, 'total': 400.0, 'quantity': 1}] (Background on this error at: http://sqlalche.me/e/gkpj) [in /home/kinober/Desktop/tubayo/app/shopping_cart/ShoppingCart.py:36]
2018-10-04 13:00:19,964 INFO: Tubayo startup [in /home/kinober/Desktop/tubayo/app/__init__.py:74]
2018-10-04 16:34:45,994 INFO: Tubayo startup [in /home/kinober/Desktop/tubayo/app/__init__.py:74]
2018-10-04 16:34:48,430 INFO: Tubayo startup [in /home/kinober/Desktop/tubayo/app/__init__.py:74]
2018-10-04 17:03:18,948 INFO: Tubayo startup [in /home/kinober/Desktop/tubayo/app/__init__.py:74]
2018-10-04 17:28:26,560 INFO: Tubayo startup [in /home/kinober/Desktop/tubayo/app/__init__.py:74]
2018-10-04 17:28:27,401 INFO: Tubayo startup [in /home/kinober/Desktop/tubayo/app/__init__.py:74]
2018-10-04 17:28:59,651 ERROR: No row was found for one() [in /home/kinober/Desktop/tubayo/app/shopping_cart/ShoppingCart.py:22]
2018-10-04 17:29:03,366 ERROR: (mysql.connector.errors.IntegrityError) 1048 (23000): Column 'date' cannot be null [SQL: u'INSERT INTO `ShoppingCart` (created_on, updated_on, item_name, price, quantity, total, description, filename, experience_id, user_id, date) VALUES (%(created_on)s, now(), %(item_name)s, %(price)s, %(quantity)s, %(total)s, %(description)s, %(filename)s, %(experience_id)s, %(user_id)s, %(date)s)'] [parameters: {'user_id': 1, 'description': u'5ynw4', 'item_name': u'rr6', 'price': 300.0, 'filename': u'Airbnb5.jpg', 'created_on': datetime.datetime(2018, 10, 4, 14, 29, 3, 363468), 'date': None, 'experience_id': 12, 'total': 300.0, 'quantity': 1}] (Background on this error at: http://sqlalche.me/e/gkpj) [in /home/kinober/Desktop/tubayo/app/shopping_cart/ShoppingCart.py:36]
2018-10-04 17:30:40,724 ERROR: No row was found for one() [in /home/kinober/Desktop/tubayo/app/shopping_cart/ShoppingCart.py:22]
2018-10-04 17:30:43,245 ERROR: (mysql.connector.errors.IntegrityError) 1048 (23000): Column 'date' cannot be null [SQL: u'INSERT INTO `ShoppingCart` (created_on, updated_on, item_name, price, quantity, total, description, filename, experience_id, user_id, date) VALUES (%(created_on)s, now(), %(item_name)s, %(price)s, %(quantity)s, %(total)s, %(description)s, %(filename)s, %(experience_id)s, %(user_id)s, %(date)s)'] [parameters: {'user_id': 1, 'description': u'5ynw4', 'item_name': u'rr6', 'price': 300.0, 'filename': u'Airbnb5.jpg', 'created_on': datetime.datetime(2018, 10, 4, 14, 30, 43, 242911), 'date': None, 'experience_id': 12, 'total': 300.0, 'quantity': 1}] (Background on this error at: http://sqlalche.me/e/gkpj) [in /home/kinober/Desktop/tubayo/app/shopping_cart/ShoppingCart.py:36]
2018-10-07 10:00:51,881 INFO: Tubayo startup [in /home/kinober/Desktop/tubayo/app/__init__.py:74]
2018-10-07 10:00:54,155 INFO: Tubayo startup [in /home/kinober/Desktop/tubayo/app/__init__.py:74]
2018-10-07 10:12:52,278 INFO: Tubayo startup [in /home/kinober/Desktop/tubayo/app/__init__.py:74]
2018-10-07 10:12:58,603 INFO: Tubayo startup [in /home/kinober/Desktop/tubayo/app/__init__.py:74]
2018-10-07 10:13:36,518 INFO: Tubayo startup [in /home/kinober/Desktop/tubayo/app/__init__.py:74]
2018-10-07 10:17:45,473 INFO: Tubayo startup [in /home/kinober/Desktop/tubayo/app/__init__.py:74]
2018-10-07 10:18:03,404 INFO: Tubayo startup [in /home/kinober/Desktop/tubayo/app/__init__.py:74]
2018-10-07 10:20:45,199 INFO: Tubayo startup [in /home/kinober/Desktop/tubayo/app/__init__.py:74]
2018-10-07 10:20:55,402 INFO: Tubayo startup [in /home/kinober/Desktop/tubayo/app/__init__.py:74]
2018-10-07 10:23:19,506 INFO: Tubayo startup [in /home/kinober/Desktop/tubayo/app/__init__.py:74]
2018-10-07 10:23:29,950 INFO: Tubayo startup [in /home/kinober/Desktop/tubayo/app/__init__.py:74]
2018-10-07 10:23:55,467 INFO: Tubayo startup [in /home/kinober/Desktop/tubayo/app/__init__.py:74]
2018-10-07 10:24:14,428 INFO: Tubayo startup [in /home/kinober/Desktop/tubayo/app/__init__.py:74]
2018-10-07 10:24:28,059 INFO: Tubayo startup [in /home/kinober/Desktop/tubayo/app/__init__.py:74]
2018-10-07 10:24:37,414 INFO: Tubayo startup [in /home/kinober/Desktop/tubayo/app/__init__.py:74]
2018-10-07 10:25:14,294 INFO: Tubayo startup [in /home/kinober/Desktop/tubayo/app/__init__.py:74]
2018-10-07 10:25:53,994 INFO: Tubayo startup [in /home/kinober/Desktop/tubayo/app/__init__.py:74]
2018-10-07 10:25:54,805 INFO: Tubayo startup [in /home/kinober/Desktop/tubayo/app/__init__.py:74]
2018-10-07 10:27:01,883 INFO: Tubayo startup [in /home/kinober/Desktop/tubayo/app/__init__.py:74]
2018-10-07 10:27:54,746 INFO: Tubayo startup [in /home/kinober/Desktop/tubayo/app/__init__.py:74]
2018-10-07 10:28:20,597 INFO: Tubayo startup [in /home/kinober/Desktop/tubayo/app/__init__.py:74]
2018-10-07 10:28:21,547 INFO: Tubayo startup [in /home/kinober/Desktop/tubayo/app/__init__.py:74]
2018-10-07 10:32:12,606 INFO: Tubayo startup [in /home/kinober/Desktop/tubayo/app/__init__.py:74]
2018-10-07 10:34:19,042 INFO: Tubayo startup [in /home/kinober/Desktop/tubayo/app/__init__.py:74]
2018-10-07 10:34:19,986 INFO: Tubayo startup [in /home/kinober/Desktop/tubayo/app/__init__.py:74]
2018-10-07 10:35:08,806 INFO: Tubayo startup [in /home/kinober/Desktop/tubayo/app/__init__.py:74]
2018-10-07 10:35:27,345 INFO: Tubayo startup [in /home/kinober/Desktop/tubayo/app/__init__.py:74]
2018-10-07 10:36:03,415 INFO: Tubayo startup [in /home/kinober/Desktop/tubayo/app/__init__.py:74]
2018-10-07 10:52:11,793 INFO: Tubayo startup [in /home/kinober/Desktop/tubayo/app/__init__.py:74]
2018-10-07 10:57:41,260 INFO: Tubayo startup [in /home/kinober/Desktop/tubayo/app/__init__.py:74]
2018-10-07 10:59:13,137 INFO: Tubayo startup [in /home/kinober/Desktop/tubayo/app/__init__.py:74]
2018-10-07 11:03:23,309 INFO: Tubayo startup [in /home/kinober/Desktop/tubayo/app/__init__.py:74]
2018-10-07 11:06:45,299 INFO: Tubayo startup [in /home/kinober/Desktop/tubayo/app/__init__.py:74]
2018-10-07 11:07:17,421 INFO: Tubayo startup [in /home/kinober/Desktop/tubayo/app/__init__.py:74]
2018-10-07 11:07:18,232 INFO: Tubayo startup [in /home/kinober/Desktop/tubayo/app/__init__.py:74]
2018-10-07 11:14:24,344 INFO: Tubayo startup [in /home/kinober/Desktop/tubayo/app/__init__.py:74]
2018-10-07 11:16:11,227 INFO: Tubayo startup [in /home/kinober/Desktop/tubayo/app/__init__.py:74]
2018-10-07 11:24:03,678 INFO: Tubayo startup [in /home/kinober/Desktop/tubayo/app/__init__.py:74]
2018-10-07 11:24:14,799 INFO: Tubayo startup [in /home/kinober/Desktop/tubayo/app/__init__.py:74]
2018-10-07 11:24:15,861 INFO: Tubayo startup [in /home/kinober/Desktop/tubayo/app/__init__.py:74]
2018-10-07 11:31:47,639 INFO: Tubayo startup [in /home/kinober/Desktop/tubayo/app/__init__.py:74]
2018-10-07 12:02:28,911 INFO: Tubayo startup [in /home/kinober/Desktop/tubayo/app/__init__.py:74]
2018-10-07 12:02:34,833 INFO: Tubayo startup [in /home/kinober/Desktop/tubayo/app/__init__.py:74]
2018-10-07 12:02:39,891 INFO: Tubayo startup [in /home/kinober/Desktop/tubayo/app/__init__.py:74]
2018-10-07 12:02:47,571 INFO: Tubayo startup [in /home/kinober/Desktop/tubayo/app/__init__.py:74]
2018-10-07 12:03:35,995 INFO: Tubayo startup [in /home/kinober/Desktop/tubayo/app/__init__.py:74]
2018-10-07 12:04:05,190 INFO: Tubayo startup [in /home/kinober/Desktop/tubayo/app/__init__.py:74]
2018-10-07 12:04:06,024 INFO: Tubayo startup [in /home/kinober/Desktop/tubayo/app/__init__.py:74]
2018-10-07 12:10:43,961 INFO: Tubayo startup [in /home/kinober/Desktop/tubayo/app/__init__.py:74]
2018-10-07 12:14:35,490 INFO: Tubayo startup [in /home/kinober/Desktop/tubayo/app/__init__.py:74]
2018-10-07 12:15:26,561 INFO: Tubayo startup [in /home/kinober/Desktop/tubayo/app/__init__.py:74]
2018-10-07 12:15:50,647 INFO: Tubayo startup [in /home/kinober/Desktop/tubayo/app/__init__.py:74]
2018-10-07 12:15:55,078 INFO: Tubayo startup [in /home/kinober/Desktop/tubayo/app/__init__.py:74]
2018-10-07 12:15:55,971 INFO: Tubayo startup [in /home/kinober/Desktop/tubayo/app/__init__.py:74]
2018-10-07 12:23:57,127 INFO: Tubayo startup [in /home/kinober/Desktop/tubayo/app/__init__.py:74]
2018-10-07 12:41:55,441 INFO: Tubayo startup [in /home/kinober/Desktop/tubayo/app/__init__.py:74]
2018-10-07 12:42:26,926 INFO: Tubayo startup [in /home/kinober/Desktop/tubayo/app/__init__.py:74]
2018-10-07 12:42:27,992 INFO: Tubayo startup [in /home/kinober/Desktop/tubayo/app/__init__.py:74]
