2018-10-07 12:44:39,313 INFO: Tubayo startup [in /home/kinober/Desktop/tubayo/app/__init__.py:74]
2018-10-07 12:52:34,577 INFO: Tubayo startup [in /home/kinober/Desktop/tubayo/app/__init__.py:74]
2018-10-07 12:56:04,250 INFO: Tubayo startup [in /home/kinober/Desktop/tubayo/app/__init__.py:74]
2018-10-07 20:52:26,202 INFO: Tubayo startup [in /home/kinober/Desktop/tubayo/app/__init__.py:74]
2018-10-07 20:52:28,726 INFO: Tubayo startup [in /home/kinober/Desktop/tubayo/app/__init__.py:74]
2018-10-07 21:05:55,802 INFO: Tubayo startup [in /home/kinober/Desktop/tubayo/app/__init__.py:74]
2018-10-07 21:06:04,720 INFO: Tubayo startup [in /home/kinober/Desktop/tubayo/app/__init__.py:74]
2018-10-07 21:06:09,402 INFO: Tubayo startup [in /home/kinober/Desktop/tubayo/app/__init__.py:74]
2018-10-07 21:06:10,247 INFO: Tubayo startup [in /home/kinober/Desktop/tubayo/app/__init__.py:74]
2018-10-07 21:19:17,358 INFO: Tubayo startup [in /home/kinober/Desktop/tubayo/app/__init__.py:74]
2018-10-07 21:19:20,563 INFO: Tubayo startup [in /home/kinober/Desktop/tubayo/app/__init__.py:74]
2018-10-07 21:19:21,416 INFO: Tubayo startup [in /home/kinober/Desktop/tubayo/app/__init__.py:74]
2018-10-07 21:24:25,829 INFO: Tubayo startup [in /home/kinober/Desktop/tubayo/app/__init__.py:74]
2018-10-07 21:24:28,790 INFO: Tubayo startup [in /home/kinober/Desktop/tubayo/app/__init__.py:74]
2018-10-07 21:24:29,657 INFO: Tubayo startup [in /home/kinober/Desktop/tubayo/app/__init__.py:74]
2018-10-07 21:39:42,177 INFO: Tubayo startup [in /home/kinober/Desktop/tubayo/app/__init__.py:74]
2018-10-07 21:41:43,868 INFO: Tubayo startup [in /home/kinober/Desktop/tubayo/app/__init__.py:74]
2018-10-07 21:43:49,581 INFO: Tubayo startup [in /home/kinober/Desktop/tubayo/app/__init__.py:74]
2018-10-07 21:43:52,924 INFO: Tubayo startup [in /home/kinober/Desktop/tubayo/app/__init__.py:74]
2018-10-07 21:43:54,191 INFO: Tubayo startup [in /home/kinober/Desktop/tubayo/app/__init__.py:74]
2018-10-07 21:51:38,502 INFO: Tubayo startup [in /home/kinober/Desktop/tubayo/app/__init__.py:74]
2018-10-07 21:52:37,869 INFO: Tubayo startup [in /home/kinober/Desktop/tubayo/app/__init__.py:74]
2018-10-07 21:53:24,338 INFO: Tubayo startup [in /home/kinober/Desktop/tubayo/app/__init__.py:74]
2018-10-07 21:53:33,945 INFO: Tubayo startup [in /home/kinober/Desktop/tubayo/app/__init__.py:74]
2018-10-07 21:53:34,899 INFO: Tubayo startup [in /home/kinober/Desktop/tubayo/app/__init__.py:74]
2018-10-07 21:55:34,449 INFO: Tubayo startup [in /home/kinober/Desktop/tubayo/app/__init__.py:74]
2018-10-07 22:00:03,576 INFO: Tubayo startup [in /home/kinober/Desktop/tubayo/app/__init__.py:74]
2018-10-07 22:00:08,519 INFO: Tubayo startup [in /home/kinober/Desktop/tubayo/app/__init__.py:74]
2018-10-07 22:04:11,834 INFO: Tubayo startup [in /home/kinober/Desktop/tubayo/app/__init__.py:74]
2018-10-07 22:05:03,862 INFO: Tubayo startup [in /home/kinober/Desktop/tubayo/app/__init__.py:74]
2018-10-07 22:05:04,978 INFO: Tubayo startup [in /home/kinober/Desktop/tubayo/app/__init__.py:74]
2018-10-07 22:12:56,079 INFO: Tubayo startup [in /home/kinober/Desktop/tubayo/app/__init__.py:74]
2018-10-07 22:13:28,883 INFO: Tubayo startup [in /home/kinober/Desktop/tubayo/app/__init__.py:74]
2018-10-07 22:13:30,015 INFO: Tubayo startup [in /home/kinober/Desktop/tubayo/app/__init__.py:74]
2018-10-07 22:15:20,560 INFO: Tubayo startup [in /home/kinober/Desktop/tubayo/app/__init__.py:74]
2018-10-07 22:25:17,736 INFO: Tubayo startup [in /home/kinober/Desktop/tubayo/app/__init__.py:74]
2018-10-07 22:26:34,177 INFO: Tubayo startup [in /home/kinober/Desktop/tubayo/app/__init__.py:74]
2018-10-07 22:26:43,748 INFO: Tubayo startup [in /home/kinober/Desktop/tubayo/app/__init__.py:74]
2018-10-07 22:27:14,180 INFO: Tubayo startup [in /home/kinober/Desktop/tubayo/app/__init__.py:74]
2018-10-07 22:27:53,488 INFO: Tubayo startup [in /home/kinober/Desktop/tubayo/app/__init__.py:74]
2018-10-07 22:28:26,257 INFO: Tubayo startup [in /home/kinober/Desktop/tubayo/app/__init__.py:74]
2018-10-07 22:28:27,414 INFO: Tubayo startup [in /home/kinober/Desktop/tubayo/app/__init__.py:74]
2018-10-08 12:47:23,884 INFO: Tubayo startup [in /home/kinober/Desktop/tubayo/app/__init__.py:74]
2018-10-08 12:47:26,250 INFO: Tubayo startup [in /home/kinober/Desktop/tubayo/app/__init__.py:74]
2018-10-08 13:47:27,369 INFO: Tubayo startup [in /home/kinober/Desktop/tubayo/app/__init__.py:74]
2018-10-08 13:48:03,236 INFO: Tubayo startup [in /home/kinober/Desktop/tubayo/app/__init__.py:74]
2018-10-08 13:49:16,052 INFO: Tubayo startup [in /home/kinober/Desktop/tubayo/app/__init__.py:74]
2018-10-08 13:49:59,431 INFO: Tubayo startup [in /home/kinober/Desktop/tubayo/app/__init__.py:74]
2018-10-08 13:51:14,980 INFO: Tubayo startup [in /home/kinober/Desktop/tubayo/app/__init__.py:74]
2018-10-08 13:51:55,359 INFO: Tubayo startup [in /home/kinober/Desktop/tubayo/app/__init__.py:74]
2018-10-08 13:52:10,968 INFO: Tubayo startup [in /home/kinober/Desktop/tubayo/app/__init__.py:74]
2018-10-08 13:52:31,979 INFO: Tubayo startup [in /home/kinober/Desktop/tubayo/app/__init__.py:74]
2018-10-08 13:52:33,063 INFO: Tubayo startup [in /home/kinober/Desktop/tubayo/app/__init__.py:74]
2018-10-08 15:02:28,490 INFO: Tubayo startup [in /home/kinober/Desktop/tubayo/app/__init__.py:74]
2018-10-08 15:12:01,912 INFO: Tubayo startup [in /home/kinober/Desktop/tubayo/app/__init__.py:74]
2018-10-08 15:12:41,221 INFO: Tubayo startup [in /home/kinober/Desktop/tubayo/app/__init__.py:74]
2018-10-08 15:13:49,820 INFO: Tubayo startup [in /home/kinober/Desktop/tubayo/app/__init__.py:74]
2018-10-08 15:13:51,118 INFO: Tubayo startup [in /home/kinober/Desktop/tubayo/app/__init__.py:74]
2018-10-08 15:15:05,838 INFO: Tubayo startup [in /home/kinober/Desktop/tubayo/app/__init__.py:74]
2018-10-08 15:15:21,530 INFO: Tubayo startup [in /home/kinober/Desktop/tubayo/app/__init__.py:74]
2018-10-08 15:16:02,420 INFO: Tubayo startup [in /home/kinober/Desktop/tubayo/app/__init__.py:74]
2018-10-08 15:16:19,230 INFO: Tubayo startup [in /home/kinober/Desktop/tubayo/app/__init__.py:74]
2018-10-08 15:16:53,721 INFO: Tubayo startup [in /home/kinober/Desktop/tubayo/app/__init__.py:74]
2018-10-08 15:17:22,463 INFO: Tubayo startup [in /home/kinober/Desktop/tubayo/app/__init__.py:74]
2018-10-08 15:19:24,517 INFO: Tubayo startup [in /home/kinober/Desktop/tubayo/app/__init__.py:74]
2018-10-08 15:21:16,320 INFO: Tubayo startup [in /home/kinober/Desktop/tubayo/app/__init__.py:74]
2018-10-08 15:21:43,620 INFO: Tubayo startup [in /home/kinober/Desktop/tubayo/app/__init__.py:74]
2018-10-08 15:22:26,280 INFO: Tubayo startup [in /home/kinober/Desktop/tubayo/app/__init__.py:74]
2018-10-08 15:22:52,298 INFO: Tubayo startup [in /home/kinober/Desktop/tubayo/app/__init__.py:74]
2018-10-08 15:24:40,888 INFO: Tubayo startup [in /home/kinober/Desktop/tubayo/app/__init__.py:74]
2018-10-08 15:25:41,303 INFO: Tubayo startup [in /home/kinober/Desktop/tubayo/app/__init__.py:74]
2018-10-08 15:26:00,099 INFO: Tubayo startup [in /home/kinober/Desktop/tubayo/app/__init__.py:74]
2018-10-08 15:26:01,460 INFO: Tubayo startup [in /home/kinober/Desktop/tubayo/app/__init__.py:74]
2018-10-08 15:26:57,944 INFO: Tubayo startup [in /home/kinober/Desktop/tubayo/app/__init__.py:74]
2018-10-08 15:28:11,932 INFO: Tubayo startup [in /home/kinober/Desktop/tubayo/app/__init__.py:74]
2018-10-08 15:28:55,927 INFO: Tubayo startup [in /home/kinober/Desktop/tubayo/app/__init__.py:74]
2018-10-08 15:29:27,499 INFO: Tubayo startup [in /home/kinober/Desktop/tubayo/app/__init__.py:74]
2018-10-08 15:29:43,940 INFO: Tubayo startup [in /home/kinober/Desktop/tubayo/app/__init__.py:74]
2018-10-08 15:31:34,692 INFO: Tubayo startup [in /home/kinober/Desktop/tubayo/app/__init__.py:74]
2018-10-08 15:34:42,884 INFO: Tubayo startup [in /home/kinober/Desktop/tubayo/app/__init__.py:74]
2018-10-08 15:35:26,800 INFO: Tubayo startup [in /home/kinober/Desktop/tubayo/app/__init__.py:74]
2018-10-08 15:35:41,646 INFO: Tubayo startup [in /home/kinober/Desktop/tubayo/app/__init__.py:74]
2018-10-08 15:35:42,806 INFO: Tubayo startup [in /home/kinober/Desktop/tubayo/app/__init__.py:74]
2018-10-08 15:36:25,436 INFO: Tubayo startup [in /home/kinober/Desktop/tubayo/app/__init__.py:74]
2018-10-08 15:36:39,476 INFO: Tubayo startup [in /home/kinober/Desktop/tubayo/app/__init__.py:74]
2018-10-08 15:36:50,444 INFO: Tubayo startup [in /home/kinober/Desktop/tubayo/app/__init__.py:74]
2018-10-08 15:37:18,141 INFO: Tubayo startup [in /home/kinober/Desktop/tubayo/app/__init__.py:74]
2018-10-08 15:40:58,737 INFO: Tubayo startup [in /home/kinober/Desktop/tubayo/app/__init__.py:74]
2018-10-08 15:43:58,648 INFO: Tubayo startup [in /home/kinober/Desktop/tubayo/app/__init__.py:74]
2018-10-08 15:44:24,487 INFO: Tubayo startup [in /home/kinober/Desktop/tubayo/app/__init__.py:74]
2018-10-08 15:44:42,790 INFO: Tubayo startup [in /home/kinober/Desktop/tubayo/app/__init__.py:74]
2018-10-08 15:44:43,927 INFO: Tubayo startup [in /home/kinober/Desktop/tubayo/app/__init__.py:74]
2018-10-08 15:47:31,321 INFO: Tubayo startup [in /home/kinober/Desktop/tubayo/app/__init__.py:74]
2018-10-08 15:54:37,223 INFO: Tubayo startup [in /home/kinober/Desktop/tubayo/app/__init__.py:74]
2018-10-08 15:57:17,794 INFO: Tubayo startup [in /home/kinober/Desktop/tubayo/app/__init__.py:74]
2018-10-08 15:58:28,244 INFO: Tubayo startup [in /home/kinober/Desktop/tubayo/app/__init__.py:74]
2018-10-08 15:59:27,547 INFO: Tubayo startup [in /home/kinober/Desktop/tubayo/app/__init__.py:74]
2018-10-08 16:00:20,620 INFO: Tubayo startup [in /home/kinober/Desktop/tubayo/app/__init__.py:74]
2018-10-08 16:00:21,928 INFO: Tubayo startup [in /home/kinober/Desktop/tubayo/app/__init__.py:74]
2018-10-08 16:04:20,231 INFO: Tubayo startup [in /home/kinober/Desktop/tubayo/app/__init__.py:74]
2018-10-08 16:14:22,732 INFO: Tubayo startup [in /home/kinober/Desktop/tubayo/app/__init__.py:74]
2018-10-08 16:18:04,619 INFO: Tubayo startup [in /home/kinober/Desktop/tubayo/app/__init__.py:74]
2018-10-08 16:18:51,902 INFO: Tubayo startup [in /home/kinober/Desktop/tubayo/app/__init__.py:74]
2018-10-08 16:19:29,825 INFO: Tubayo startup [in /home/kinober/Desktop/tubayo/app/__init__.py:74]
