2018-10-08 16:20:05,507 INFO: Tubayo startup [in /home/kinober/Desktop/tubayo/app/__init__.py:74]
2018-10-08 16:20:06,615 INFO: Tubayo startup [in /home/kinober/Desktop/tubayo/app/__init__.py:74]
2018-10-08 16:20:56,698 INFO: Tubayo startup [in /home/kinober/Desktop/tubayo/app/__init__.py:74]
2018-10-08 16:24:25,500 INFO: Tubayo startup [in /home/kinober/Desktop/tubayo/app/__init__.py:74]
2018-10-08 16:26:02,803 INFO: Tubayo startup [in /home/kinober/Desktop/tubayo/app/__init__.py:74]
2018-10-08 16:27:38,184 INFO: Tubayo startup [in /home/kinober/Desktop/tubayo/app/__init__.py:74]
2018-10-08 16:27:50,610 INFO: Tubayo startup [in /home/kinober/Desktop/tubayo/app/__init__.py:74]
2018-10-08 16:33:44,637 INFO: Tubayo startup [in /home/kinober/Desktop/tubayo/app/__init__.py:74]
2018-10-09 10:06:46,353 INFO: Tubayo startup [in /home/kinober/Desktop/tubayo/app/__init__.py:74]
2018-10-09 10:06:47,459 INFO: Tubayo startup [in /home/kinober/Desktop/tubayo/app/__init__.py:74]
2018-10-09 10:51:00,716 INFO: Tubayo startup [in /home/kinober/Desktop/tubayo/app/__init__.py:74]
2018-10-09 11:09:33,456 INFO: Tubayo startup [in /home/kinober/Desktop/tubayo/app/__init__.py:74]
2018-10-09 17:32:03,365 INFO: Tubayo startup [in /home/kinober/Desktop/tubayo/app/__init__.py:74]
2018-10-09 17:32:07,712 INFO: Tubayo startup [in /home/kinober/Desktop/tubayo/app/__init__.py:74]
2018-10-10 14:03:28,754 INFO: Tubayo startup [in /home/kinober/Desktop/tubayo/app/__init__.py:74]
2018-10-10 14:03:31,087 INFO: Tubayo startup [in /home/kinober/Desktop/tubayo/app/__init__.py:74]
2018-10-10 14:11:10,803 INFO: Tubayo startup [in /home/kinober/Desktop/tubayo/app/__init__.py:74]
2018-10-10 14:11:27,107 INFO: Tubayo startup [in /home/kinober/Desktop/tubayo/app/__init__.py:74]
2018-10-10 14:12:51,865 INFO: Tubayo startup [in /home/kinober/Desktop/tubayo/app/__init__.py:74]
2018-10-10 14:13:02,551 INFO: Tubayo startup [in /home/kinober/Desktop/tubayo/app/__init__.py:74]
2018-10-10 14:14:27,975 INFO: Tubayo startup [in /home/kinober/Desktop/tubayo/app/__init__.py:74]
2018-10-10 14:15:46,626 INFO: Tubayo startup [in /home/kinober/Desktop/tubayo/app/__init__.py:74]
2018-10-10 14:16:38,616 INFO: Tubayo startup [in /home/kinober/Desktop/tubayo/app/__init__.py:74]
2018-10-10 14:16:50,602 INFO: Tubayo startup [in /home/kinober/Desktop/tubayo/app/__init__.py:74]
2018-10-10 14:16:51,686 INFO: Tubayo startup [in /home/kinober/Desktop/tubayo/app/__init__.py:74]
2018-10-10 14:18:17,160 INFO: Tubayo startup [in /home/kinober/Desktop/tubayo/app/__init__.py:74]
2018-10-10 14:31:18,727 INFO: Tubayo startup [in /home/kinober/Desktop/tubayo/app/__init__.py:74]
2018-10-10 14:33:09,886 INFO: Tubayo startup [in /home/kinober/Desktop/tubayo/app/__init__.py:74]
2018-10-10 14:33:51,695 INFO: Tubayo startup [in /home/kinober/Desktop/tubayo/app/__init__.py:74]
2018-10-10 14:34:49,760 INFO: Tubayo startup [in /home/kinober/Desktop/tubayo/app/__init__.py:74]
2018-10-10 14:40:27,117 INFO: Tubayo startup [in /home/kinober/Desktop/tubayo/app/__init__.py:74]
2018-10-10 14:41:49,503 INFO: Tubayo startup [in /home/kinober/Desktop/tubayo/app/__init__.py:74]
2018-10-10 14:58:53,388 INFO: Tubayo startup [in /home/kinober/Desktop/tubayo/app/__init__.py:74]
2018-10-10 14:59:06,960 INFO: Tubayo startup [in /home/kinober/Desktop/tubayo/app/__init__.py:74]
2018-10-10 14:59:08,004 INFO: Tubayo startup [in /home/kinober/Desktop/tubayo/app/__init__.py:74]
2018-10-10 15:33:13,596 INFO: Tubayo startup [in /home/kinober/Desktop/tubayo/app/__init__.py:74]
2018-10-10 15:53:09,300 INFO: Tubayo startup [in /home/kinober/Desktop/tubayo/app/__init__.py:74]
2018-10-10 16:26:55,447 INFO: Tubayo startup [in /home/kinober/Desktop/tubayo/app/__init__.py:74]
2018-10-12 10:27:39,915 INFO: Tubayo startup [in /home/kinober/Desktop/tubayo/app/__init__.py:74]
2018-10-12 10:27:42,206 INFO: Tubayo startup [in /home/kinober/Desktop/tubayo/app/__init__.py:74]
2018-10-12 10:27:58,830 INFO: Tubayo startup [in /home/kinober/Desktop/tubayo/app/__init__.py:74]
2018-10-12 10:29:02,174 INFO: Tubayo startup [in /home/kinober/Desktop/tubayo/app/__init__.py:74]
2018-10-12 10:41:38,989 INFO: Tubayo startup [in /home/kinober/Desktop/tubayo/app/__init__.py:74]
2018-10-12 10:42:02,462 INFO: Tubayo startup [in /home/kinober/Desktop/tubayo/app/__init__.py:74]
2018-10-12 10:44:33,163 INFO: Tubayo startup [in /home/kinober/Desktop/tubayo/app/__init__.py:74]
2018-10-12 10:44:34,064 INFO: Tubayo startup [in /home/kinober/Desktop/tubayo/app/__init__.py:74]
2018-10-12 10:45:31,179 INFO: Tubayo startup [in /home/kinober/Desktop/tubayo/app/__init__.py:74]
2018-10-12 11:09:35,307 INFO: Tubayo startup [in /home/kinober/Desktop/tubayo/app/__init__.py:74]
2018-10-12 11:09:36,470 INFO: Tubayo startup [in /home/kinober/Desktop/tubayo/app/__init__.py:74]
2018-10-12 13:16:44,340 INFO: Tubayo startup [in /home/kinober/Desktop/tubayo/app/__init__.py:74]
2018-10-12 13:16:45,350 INFO: Tubayo startup [in /home/kinober/Desktop/tubayo/app/__init__.py:74]
2018-10-12 14:45:46,300 INFO: Tubayo startup [in /home/kinober/Desktop/tubayo/app/__init__.py:74]
2018-10-12 14:45:47,217 INFO: Tubayo startup [in /home/kinober/Desktop/tubayo/app/__init__.py:74]
2018-10-12 15:06:20,924 INFO: Tubayo startup [in /home/kinober/Desktop/tubayo/app/__init__.py:74]
2018-10-12 15:06:21,796 INFO: Tubayo startup [in /home/kinober/Desktop/tubayo/app/__init__.py:74]
2018-10-12 16:31:15,766 INFO: Tubayo startup [in /home/kinober/Desktop/tubayo/app/__init__.py:74]
2018-10-12 16:37:36,771 INFO: Tubayo startup [in /home/kinober/Desktop/tubayo/app/__init__.py:74]
2018-10-12 16:37:56,118 INFO: Tubayo startup [in /home/kinober/Desktop/tubayo/app/__init__.py:74]
2018-10-12 16:38:52,247 INFO: Tubayo startup [in /home/kinober/Desktop/tubayo/app/__init__.py:74]
2018-10-12 16:40:00,346 INFO: Tubayo startup [in /home/kinober/Desktop/tubayo/app/__init__.py:74]
2018-10-12 16:40:01,237 INFO: Tubayo startup [in /home/kinober/Desktop/tubayo/app/__init__.py:74]
2018-10-12 16:41:15,628 INFO: Tubayo startup [in /home/kinober/Desktop/tubayo/app/__init__.py:74]
2018-10-12 16:41:58,978 INFO: Tubayo startup [in /home/kinober/Desktop/tubayo/app/__init__.py:74]
2018-10-12 16:42:00,153 INFO: Tubayo startup [in /home/kinober/Desktop/tubayo/app/__init__.py:74]
2018-10-12 16:43:17,666 INFO: Tubayo startup [in /home/kinober/Desktop/tubayo/app/__init__.py:74]
2018-10-12 16:44:00,014 INFO: Tubayo startup [in /home/kinober/Desktop/tubayo/app/__init__.py:74]
2018-10-12 16:44:53,261 INFO: Tubayo startup [in /home/kinober/Desktop/tubayo/app/__init__.py:74]
2018-10-12 16:45:35,963 INFO: Tubayo startup [in /home/kinober/Desktop/tubayo/app/__init__.py:74]
2018-10-12 16:46:50,238 INFO: Tubayo startup [in /home/kinober/Desktop/tubayo/app/__init__.py:74]
2018-10-13 10:36:13,994 INFO: Tubayo startup [in /home/kinober/Desktop/tubayo/app/__init__.py:74]
2018-10-13 10:36:16,332 INFO: Tubayo startup [in /home/kinober/Desktop/tubayo/app/__init__.py:74]
2018-10-13 10:50:34,569 INFO: Tubayo startup [in /home/kinober/Desktop/tubayo/app/__init__.py:74]
2018-10-13 10:50:55,957 INFO: Tubayo startup [in /home/kinober/Desktop/tubayo/app/__init__.py:74]
2018-10-13 10:53:29,904 INFO: Tubayo startup [in /home/kinober/Desktop/tubayo/app/__init__.py:74]
2018-10-13 10:54:43,266 INFO: Tubayo startup [in /home/kinober/Desktop/tubayo/app/__init__.py:74]
2018-10-13 10:55:29,894 INFO: Tubayo startup [in /home/kinober/Desktop/tubayo/app/__init__.py:74]
2018-10-13 10:55:30,743 INFO: Tubayo startup [in /home/kinober/Desktop/tubayo/app/__init__.py:74]
2018-10-13 11:01:25,462 INFO: Tubayo startup [in /home/kinober/Desktop/tubayo/app/__init__.py:74]
2018-10-13 11:01:34,052 INFO: Tubayo startup [in /home/kinober/Desktop/tubayo/app/__init__.py:74]
2018-10-13 11:01:35,059 INFO: Tubayo startup [in /home/kinober/Desktop/tubayo/app/__init__.py:74]
2018-10-13 11:02:11,767 INFO: Tubayo startup [in /home/kinober/Desktop/tubayo/app/__init__.py:74]
2018-10-13 11:03:17,845 INFO: Tubayo startup [in /home/kinober/Desktop/tubayo/app/__init__.py:74]
2018-10-13 11:03:57,531 INFO: Tubayo startup [in /home/kinober/Desktop/tubayo/app/__init__.py:74]
2018-10-13 13:18:29,166 INFO: Tubayo startup [in /home/kinober/Desktop/tubayo/app/__init__.py:74]
2018-10-13 13:18:30,338 INFO: Tubayo startup [in /home/kinober/Desktop/tubayo/app/__init__.py:74]
2018-10-13 13:24:20,681 INFO: Tubayo startup [in /home/kinober/Desktop/tubayo/app/__init__.py:74]
2018-10-13 13:26:12,437 INFO: Tubayo startup [in /home/kinober/Desktop/tubayo/app/__init__.py:74]
2018-10-13 13:26:27,619 INFO: Tubayo startup [in /home/kinober/Desktop/tubayo/app/__init__.py:74]
2018-10-13 13:27:32,769 INFO: Tubayo startup [in /home/kinober/Desktop/tubayo/app/__init__.py:74]
2018-10-13 13:28:09,048 INFO: Tubayo startup [in /home/kinober/Desktop/tubayo/app/__init__.py:74]
2018-10-13 13:28:09,926 INFO: Tubayo startup [in /home/kinober/Desktop/tubayo/app/__init__.py:74]
2018-10-13 13:28:45,087 INFO: Tubayo startup [in /home/kinober/Desktop/tubayo/app/__init__.py:74]
2018-10-13 13:29:32,184 INFO: Tubayo startup [in /home/kinober/Desktop/tubayo/app/__init__.py:74]
2018-10-13 13:29:33,106 INFO: Tubayo startup [in /home/kinober/Desktop/tubayo/app/__init__.py:74]
2018-10-13 13:31:21,219 INFO: Tubayo startup [in /home/kinober/Desktop/tubayo/app/__init__.py:74]
2018-10-13 13:32:02,089 INFO: Tubayo startup [in /home/kinober/Desktop/tubayo/app/__init__.py:74]
2018-10-13 13:43:31,298 INFO: Tubayo startup [in /home/kinober/Desktop/tubayo/app/__init__.py:74]
2018-10-13 13:43:32,484 INFO: Tubayo startup [in /home/kinober/Desktop/tubayo/app/__init__.py:74]
2018-10-13 13:44:45,210 INFO: Tubayo startup [in /home/kinober/Desktop/tubayo/app/__init__.py:74]
2018-10-13 13:45:34,806 INFO: Tubayo startup [in /home/kinober/Desktop/tubayo/app/__init__.py:74]
2018-10-13 13:45:35,945 INFO: Tubayo startup [in /home/kinober/Desktop/tubayo/app/__init__.py:74]
2018-10-13 13:48:16,380 INFO: Tubayo startup [in /home/kinober/Desktop/tubayo/app/__init__.py:74]
2018-10-13 13:49:01,425 INFO: Tubayo startup [in /home/kinober/Desktop/tubayo/app/__init__.py:74]
2018-10-13 13:51:11,129 INFO: Tubayo startup [in /home/kinober/Desktop/tubayo/app/__init__.py:74]
