2018-10-02 15:42:33,798 INFO: Tubayo startup [in /home/kinober/Desktop/tubayo/app/__init__.py:74]
2018-10-02 15:43:26,280 ERROR: No row was found for one() [in /home/kinober/Desktop/tubayo/app/shopping_cart/ShoppingCart.py:22]
2018-10-02 15:43:26,302 ERROR: (mysql.connector.errors.IntegrityError) 1048 (23000): Column 'date' cannot be null [SQL: u'INSERT INTO `ShoppingCart` (created_on, updated_on, item_name, price, quantity, total, description, filename, experience_id, user_id, date) VALUES (%(created_on)s, now(), %(item_name)s, %(price)s, %(quantity)s, %(total)s, %(description)s, %(filename)s, %(experience_id)s, %(user_id)s, %(date)s)'] [parameters: {'user_id': 1, 'description': u'mmgyui', 'item_name': u'yo87', 'price': 75.0, 'filename': u'b5420db5-75c2-4b3c-86a7-3d9838b92247.jpg', 'created_on': datetime.datetime(2018, 10, 2, 12, 43, 26, 299532), 'date': None, 'experience_id': 11, 'total': 75.0, 'quantity': 1}] (Background on this error at: http://sqlalche.me/e/gkpj) [in /home/kinober/Desktop/tubayo/app/shopping_cart/ShoppingCart.py:36]
2018-10-02 15:47:38,097 INFO: Tubayo startup [in /home/kinober/Desktop/tubayo/app/__init__.py:74]
2018-10-02 15:48:10,816 ERROR: No row was found for one() [in /home/kinober/Desktop/tubayo/app/shopping_cart/ShoppingCart.py:22]
2018-10-02 15:48:10,833 ERROR: (mysql.connector.errors.IntegrityError) 1048 (23000): Column 'date' cannot be null [SQL: u'INSERT INTO `ShoppingCart` (created_on, updated_on, item_name, price, quantity, total, description, filename, experience_id, user_id, date) VALUES (%(created_on)s, now(), %(item_name)s, %(price)s, %(quantity)s, %(total)s, %(description)s, %(filename)s, %(experience_id)s, %(user_id)s, %(date)s)'] [parameters: {'user_id': 1, 'description': u'mmgyui', 'item_name': u'yo87', 'price': 75.0, 'filename': u'b5420db5-75c2-4b3c-86a7-3d9838b92247.jpg', 'created_on': datetime.datetime(2018, 10, 2, 12, 48, 10, 831896), 'date': None, 'experience_id': 11, 'total': 75.0, 'quantity': 1}] (Background on this error at: http://sqlalche.me/e/gkpj) [in /home/kinober/Desktop/tubayo/app/shopping_cart/ShoppingCart.py:36]
2018-10-02 15:48:30,057 ERROR: No row was found for one() [in /home/kinober/Desktop/tubayo/app/shopping_cart/ShoppingCart.py:22]
2018-10-02 15:48:30,075 ERROR: (mysql.connector.errors.IntegrityError) 1048 (23000): Column 'date' cannot be null [SQL: u'INSERT INTO `ShoppingCart` (created_on, updated_on, item_name, price, quantity, total, description, filename, experience_id, user_id, date) VALUES (%(created_on)s, now(), %(item_name)s, %(price)s, %(quantity)s, %(total)s, %(description)s, %(filename)s, %(experience_id)s, %(user_id)s, %(date)s)'] [parameters: {'user_id': 1, 'description': u'mmgyui', 'item_name': u'yo87', 'price': 75.0, 'filename': u'b5420db5-75c2-4b3c-86a7-3d9838b92247.jpg', 'created_on': datetime.datetime(2018, 10, 2, 12, 48, 30, 72839), 'date': None, 'experience_id': 11, 'total': 75.0, 'quantity': 1}] (Background on this error at: http://sqlalche.me/e/gkpj) [in /home/kinober/Desktop/tubayo/app/shopping_cart/ShoppingCart.py:36]
2018-10-02 15:50:51,386 INFO: Tubayo startup [in /home/kinober/Desktop/tubayo/app/__init__.py:74]
2018-10-02 15:51:03,005 ERROR: No row was found for one() [in /home/kinober/Desktop/tubayo/app/shopping_cart/ShoppingCart.py:22]
2018-10-02 15:51:03,076 ERROR: (mysql.connector.errors.IntegrityError) 1048 (23000): Column 'date' cannot be null [SQL: u'INSERT INTO `ShoppingCart` (created_on, updated_on, item_name, price, quantity, total, description, filename, experience_id, user_id, date) VALUES (%(created_on)s, now(), %(item_name)s, %(price)s, %(quantity)s, %(total)s, %(description)s, %(filename)s, %(experience_id)s, %(user_id)s, %(date)s)'] [parameters: {'user_id': 1, 'description': u'mmgyui', 'item_name': u'yo87', 'price': 75.0, 'filename': u'b5420db5-75c2-4b3c-86a7-3d9838b92247.jpg', 'created_on': datetime.datetime(2018, 10, 2, 12, 51, 3, 28600), 'date': None, 'experience_id': 11, 'total': 75.0, 'quantity': 1}] (Background on this error at: http://sqlalche.me/e/gkpj) [in /home/kinober/Desktop/tubayo/app/shopping_cart/ShoppingCart.py:36]
2018-10-02 15:54:49,098 INFO: Tubayo startup [in /home/kinober/Desktop/tubayo/app/__init__.py:74]
2018-10-03 17:46:03,788 INFO: Tubayo startup [in /home/kinober/Desktop/tubayo/app/__init__.py:74]
2018-10-03 17:46:06,082 INFO: Tubayo startup [in /home/kinober/Desktop/tubayo/app/__init__.py:74]
2018-10-03 18:02:56,048 INFO: Tubayo startup [in /home/kinober/Desktop/tubayo/app/__init__.py:74]
2018-10-03 21:56:26,766 INFO: Tubayo startup [in /home/kinober/Desktop/tubayo/app/__init__.py:74]
2018-10-03 21:56:28,957 INFO: Tubayo startup [in /home/kinober/Desktop/tubayo/app/__init__.py:74]
2018-10-03 22:06:02,826 ERROR: No row was found for one() [in /home/kinober/Desktop/tubayo/app/shopping_cart/ShoppingCart.py:22]
2018-10-03 22:06:19,664 ERROR: (mysql.connector.errors.IntegrityError) 1048 (23000): Column 'date' cannot be null [SQL: u'INSERT INTO `ShoppingCart` (created_on, updated_on, item_name, price, quantity, total, description, filename, experience_id, user_id, date) VALUES (%(created_on)s, now(), %(item_name)s, %(price)s, %(quantity)s, %(total)s, %(description)s, %(filename)s, %(experience_id)s, %(user_id)s, %(date)s)'] [parameters: {'user_id': 1, 'description': u'uimuykm', 'item_name': u'iui', 'price': 897.0, 'filename': u'breakfast.jpg', 'created_on': datetime.datetime(2018, 10, 3, 19, 6, 19, 624719), 'date': None, 'experience_id': 10, 'total': 897.0, 'quantity': 1}] (Background on this error at: http://sqlalche.me/e/gkpj) [in /home/kinober/Desktop/tubayo/app/shopping_cart/ShoppingCart.py:36]
2018-10-03 22:06:49,435 ERROR: No row was found for one() [in /home/kinober/Desktop/tubayo/app/shopping_cart/ShoppingCart.py:22]
2018-10-03 22:07:05,429 ERROR: (mysql.connector.errors.IntegrityError) 1048 (23000): Column 'date' cannot be null [SQL: u'INSERT INTO `ShoppingCart` (created_on, updated_on, item_name, price, quantity, total, description, filename, experience_id, user_id, date) VALUES (%(created_on)s, now(), %(item_name)s, %(price)s, %(quantity)s, %(total)s, %(description)s, %(filename)s, %(experience_id)s, %(user_id)s, %(date)s)'] [parameters: {'user_id': 1, 'description': u'5ynw4', 'item_name': u'rr6', 'price': 300.0, 'filename': u'Airbnb5.jpg', 'created_on': datetime.datetime(2018, 10, 3, 19, 7, 5, 373433), 'date': None, 'experience_id': 12, 'total': 300.0, 'quantity': 1}] (Background on this error at: http://sqlalche.me/e/gkpj) [in /home/kinober/Desktop/tubayo/app/shopping_cart/ShoppingCart.py:36]
2018-10-03 22:08:30,025 INFO: Tubayo startup [in /home/kinober/Desktop/tubayo/app/__init__.py:74]
2018-10-03 22:09:11,254 INFO: Tubayo startup [in /home/kinober/Desktop/tubayo/app/__init__.py:74]
2018-10-03 22:09:44,517 INFO: Tubayo startup [in /home/kinober/Desktop/tubayo/app/__init__.py:74]
2018-10-03 22:10:51,857 INFO: Tubayo startup [in /home/kinober/Desktop/tubayo/app/__init__.py:74]
2018-10-03 22:10:52,722 INFO: Tubayo startup [in /home/kinober/Desktop/tubayo/app/__init__.py:74]
2018-10-03 22:12:48,509 INFO: Tubayo startup [in /home/kinober/Desktop/tubayo/app/__init__.py:74]
2018-10-03 22:13:52,521 INFO: Tubayo startup [in /home/kinober/Desktop/tubayo/app/__init__.py:74]
2018-10-03 22:13:54,455 INFO: Tubayo startup [in /home/kinober/Desktop/tubayo/app/__init__.py:74]
2018-10-03 22:15:12,782 INFO: Tubayo startup [in /home/kinober/Desktop/tubayo/app/__init__.py:74]
2018-10-04 10:33:56,510 INFO: Tubayo startup [in /home/kinober/Desktop/tubayo/app/__init__.py:74]
2018-10-04 10:33:58,365 INFO: Tubayo startup [in /home/kinober/Desktop/tubayo/app/__init__.py:74]
2018-10-04 10:41:02,509 INFO: Tubayo startup [in /home/kinober/Desktop/tubayo/app/__init__.py:74]
2018-10-04 10:41:07,118 ERROR: No row was found for one() [in /home/kinober/Desktop/tubayo/app/shopping_cart/ShoppingCart.py:30]
2018-10-04 10:41:12,920 ERROR: (mysql.connector.errors.IntegrityError) 1048 (23000): Column 'date' cannot be null [SQL: u'INSERT INTO `ShoppingCart` (created_on, updated_on, item_name, price, quantity, total, description, filename, experience_id, user_id, date) VALUES (%(created_on)s, now(), %(item_name)s, %(price)s, %(quantity)s, %(total)s, %(description)s, %(filename)s, %(experience_id)s, %(user_id)s, %(date)s)'] [parameters: {'user_id': 1, 'description': u'Treasure hunting', 'item_name': u'The Cave', 'price': 400.0, 'filename': u'uganda-tourism-center-queen-elizabeth.jpg', 'created_on': datetime.datetime(2018, 10, 4, 7, 41, 12, 866642), 'date': None, 'experience_id': 2, 'total': 800.0, 'quantity': 1}] (Background on this error at: http://sqlalche.me/e/gkpj) [in /home/kinober/Desktop/tubayo/app/shopping_cart/ShoppingCart.py:44]
2018-10-04 10:56:57,616 ERROR: No row was found for one() [in /home/kinober/Desktop/tubayo/app/shopping_cart/ShoppingCart.py:30]
2018-10-04 10:57:00,338 ERROR: (mysql.connector.errors.IntegrityError) 1048 (23000): Column 'date' cannot be null [SQL: u'INSERT INTO `ShoppingCart` (created_on, updated_on, item_name, price, quantity, total, description, filename, experience_id, user_id, date) VALUES (%(created_on)s, now(), %(item_name)s, %(price)s, %(quantity)s, %(total)s, %(description)s, %(filename)s, %(experience_id)s, %(user_id)s, %(date)s)'] [parameters: {'user_id': 1, 'description': u'Treasure hunting', 'item_name': u'The Cave', 'price': 400.0, 'filename': u'uganda-tourism-center-queen-elizabeth.jpg', 'created_on': datetime.datetime(2018, 10, 4, 7, 57, 0, 336447), 'date': None, 'experience_id': 2, 'total': 800.0, 'quantity': 1}] (Background on this error at: http://sqlalche.me/e/gkpj) [in /home/kinober/Desktop/tubayo/app/shopping_cart/ShoppingCart.py:44]
2018-10-04 11:49:59,966 INFO: Tubayo startup [in /home/kinober/Desktop/tubayo/app/__init__.py:74]
2018-10-04 12:31:45,242 INFO: Tubayo startup [in /home/kinober/Desktop/tubayo/app/__init__.py:74]
2018-10-04 12:32:37,777 INFO: Tubayo startup [in /home/kinober/Desktop/tubayo/app/__init__.py:74]
2018-10-04 12:34:26,356 INFO: Tubayo startup [in /home/kinober/Desktop/tubayo/app/__init__.py:74]
2018-10-04 12:38:58,747 INFO: Tubayo startup [in /home/kinober/Desktop/tubayo/app/__init__.py:74]
